How to use EPos-MoL • eposmol
…
Scoring and Mapping Tables

The main scoring table is located in the file
Table_1.xlsx (below inst/extdata). This table
contains the scoring scheme for the identification of lipid species
based on their eposmol class, using their molecular properties and
fragments.

scoringScheme <- read_excel(
  path = here("inst","extdata","Table_1.xlsx"),
  sheet = "Scoring scheme", 
  range = "A1:X30"
)
scoringScheme
#> # A tibble: 29 × 24
#>    Primary Secondary  Fragment Evidence ID    Unknown    FA `FA mod`    MG    DG
#>    <chr>   <chr>      <chr>    <chr>    <chr>   <dbl> <dbl>    <dbl> <dbl> <dbl>
#>  1 MS1     Molecular… NA       Nominal… L1.1       10    10       10     8    10
#>  2 MS1     Molecular… NA       Mass 5p… L1.2       30    30       30    24    30
#>  3 MS1     Molecular… NA       Mass 1p… L1.3       40    40       40    32    40
#>  4 MS1     Molecular… NA       Chromat… L1.4       10    10       10    10    10
#>  5 MS1     Molecular… NA       Ion mob… L1.5       10    10       10    10    10
#>  6 MS2     CID fragm… NA       Fragmen… L2.1       15    15       15    15    15
#>  7 MS2     CID fragm… LCF      Headgro… L2.2       12    12       12     0     0
#>  8 MS2     CID fragm… LCF      Headgro… L2.3        8     8        8     0     0
#>  9 MS2     CID fragm… LCF      Headgro… L2.4        4     4        4     0     0
#> 10 MS2     CID fragm… LCF      Headgro… L2.5        4     4        4     0     0
#> # ℹ 19 more rows
#> # ℹ 14 more variables: TG <dbl>, PL <dbl>, PIP <dbl>, CL <dbl>, LPL <dbl>,
#> #   `N-mod PL` <dbl>, oxPL <dbl>, SPB <dbl>, SP <dbl>, LSM <dbl>, CerIP <dbl>,
#> #   Gan <dbl>, `Cer OH` <dbl>, ST <dbl>
…
classMap <- read_excel(
  path = here("inst","extdata","class_map.xlsx"),
  sheet = "class_map", 
  range = "A1:B88"
)
classMap
#> # A tibble: 87 × 2
#>    LipidMapsCategoryOrClass EposmolCategoryOrClass
#>    <chr>                    <chr>                 
#>  1 BA                       BA                    
#>  2 BMP                      PL                    
#>  3 CAR                      FA mod                
#>  4 CL                       CL                    
#>  5 CoA                      FA mod                
#>  6 DG                       DG                    
#>  7 DLCL                     CL                    
#>  8 Docosanoids              FA mod                
#>  9 Eicosanoids              FA mod                
#> 10 EPC                      CerIP                 
#> # ℹ 77 more rows

We will transform the scoring scheme table into a long format table
for easier access to the scoring values.

scoringSchemeLong <- scoringScheme %>% 
  pivot_longer(
    cols=!Primary:ID, 
    names_to = "EposmolCategoryOrClass"
  )
scoringSchemeLong
#> # A tibble: 551 × 7
#>    Primary Secondary        Fragment Evidence ID    EposmolCategoryOrClass value
#>    <chr>   <chr>            <chr>    <chr>    <chr> <chr>                  <dbl>
#>  1 MS1     Molecular prope… NA       Nominal… L1.1  Unknown                   10
#>  2 MS1     Molecular prope… NA       Nominal… L1.1  FA                        10
#>  3 MS1     Molecular prope… NA       Nominal… L1.1  FA mod                    10
#>  4 MS1     Molecular prope… NA       Nominal… L1.1  MG                         8
#>  5 MS1     Molecular prope… NA       Nominal… L1.1  DG                        10
#>  6 MS1     Molecular prope… NA       Nominal… L1.1  TG                        10
#>  7 MS1     Molecular prope… NA       Nominal… L1.1  PL                         8
#>  8 MS1     Molecular prope… NA       Nominal… L1.1  PIP                       10
#>  9 MS1     Molecular prope… NA       Nominal… L1.1  CL                        20
#> 10 MS1     Molecular prope… NA       Nominal… L1.1  LPL                       10
#> # ℹ 541 more rows
…
